…
``` r
Full_data <- bind_rows(referrence_table_clean("US","ISO2"),referrence_table_clean("venezuela","Slug"),referrence_table_clean("France","Country"),referrence_table_clean("Colombia","Country"))

Full_data
```

    ## # A tibble: 375 x 8
    ##    Country                  Date                sum_of_Confirmed sum_of_Deaths sum_of_Active New_Confirmed New_Deaths New_Active
    ##    <chr>                    <dttm>                         <int>         <int>         <int>         <int>      <int>      <int>
    ##  1 United States of America 2021-06-26 00:00:00         33602388        603522      32998866         11928        347      11644
    ##  2 United States of America 2021-06-27 00:00:00         33610083        603664      33006419          7695        142       7553
    ##  3 United States of America 2021-06-28 00:00:00         33624624        603963      33020661         14541        299      14242
    ##  4 United States of America 2021-06-29 00:00:00         33639905        604111      33035794         15281        148      15133
    ##  5 United States of America 2021-06-30 00:00:00         33651211        604433      33046778         11306        322      10984
    ##  6 United States of America 2021-07-01 00:00:00         33664616        604711      33059905         13405        278      13127
    ##  7 United States of America 2021-07-02 00:00:00         33678118        605009      33073109         13502        298      13204
    ##  8 United States of America 2021-07-03 00:00:00         33692813        605309      33087504         14695        300      14395
    ##  9 United States of America 2021-07-04 00:00:00         33713521        605490      33108031         20708        181      20527
    ## 10 United States of America 2021-07-05 00:00:00         33716781        605523      33111258          3260         33       3227
    ## # ... with 365 more rows
…
